…
``` r
#map.data %>% summarise(Total_sv_needed = n(),
           # num_notrec = sum(MH_NOTGET)) %>%
 # mutate(services_rec = Total_sv_needed - num_notrec, 
#  Notrec_rate = num_notrec/Total_sv_needed)
```

``` r
map.data %>% mutate(total.needed = total_sv_needed.pri + total_sv_needed.pub, tot.svs.notrec = num_notrec.pub + num_notrec.pri , tot.notrec.rate = tot.svs.notrec / total.needed, 
                                                                                                                                                                                    ) 
```

    ## # A tibble: 51 × 12
    ##    state total…¹ num_n…² servi…³ Notre…⁴ total…⁵ num_n…⁶ servi…⁷ Notre…⁸ total…⁹
    ##    <chr>   <int>   <dbl>   <dbl>   <dbl>   <int>   <dbl>   <dbl>   <dbl>   <int>
    ##  1 Alab…     267      30     237  0.112       55       6      49  0.109      322
    ##  2 Alas…     501      61     440  0.122      123      21     102  0.171      624
    ##  3 Ariz…     501      46     455  0.0918     203      31     172  0.153      704
    ##  4 Arka…     225      21     204  0.0933      89      16      73  0.180      314
    ##  5 Cali…    1564     221    1343  0.141      406      61     345  0.150     1970
    ##  6 Colo…     678      83     595  0.122      160      30     130  0.188      838
    ##  7 Conn…     357      33     324  0.0924      84       4      80  0.0476     441
    ##  8 Dela…     222      23     199  0.104       66       9      57  0.136      288
    ##  9 Dist…     340      34     306  0.1         53       8      45  0.151      393
    ## 10 Flor…     626      64     562  0.102      210      23     187  0.110      836
    ## # … with 41 more rows, 2 more variables: tot.svs.notrec <dbl>,
    ## #   tot.notrec.rate <dbl>, and abbreviated variable names ¹​total_sv_needed.pri,
    ## #   ²​num_notrec.pri, ³​services_rec.pri, ⁴​Notrec_rate.pri, ⁵​total_sv_needed.pub,
    ## #   ⁶​num_notrec.pub, ⁷​services_rec.pub, ⁸​Notrec_rate.pub, ⁹​total.needed
…
